Day 5
…
counts <- ufo_sightings2 %>% group_by(year) %>% summarize(n = n())
counts

## # A tibble: 92 × 2
##    year      n
##    <chr> <int>
##  1 1925      1
##  2 1928      1
##  3 1929      1
##  4 1930      2
##  5 1931      2
##  6 1934      1
##  7 1937      1
##  8 1939      2
##  9 1940      1
## 10 1941      2
## # ℹ 82 more rows
…
