Day 2
…
## # A tibble: 4 × 3
##   pregnant Sex    Count
##   <chr>    <chr>  <dbl>
## 1 yes      male      NA
## 2 yes      female    10
## 3 no       male      20
## 4 no       female    12

#

NYC flights

## # A tibble: 9,723 × 19
##     year month   day dep_time sched_dep_time dep_delay arr_time sched_arr_time
##    <int> <int> <int>    <int>          <int>     <dbl>    <int>          <int>
##  1  2013     1     1      848           1835       853     1001           1950
##  2  2013     1     1      957            733       144     1056            853
##  3  2013     1     1     1114            900       134     1447           1222
##  4  2013     1     1     1540           1338       122     2020           1825
##  5  2013     1     1     1815           1325       290     2120           1542
##  6  2013     1     1     1842           1422       260     1958           1535
##  7  2013     1     1     1856           1645       131     2212           2005
##  8  2013     1     1     1934           1725       129     2126           1855
##  9  2013     1     1     1938           1703       155     2109           1823
## 10  2013     1     1     1942           1705       157     2124           1830
## # ℹ 9,713 more rows
## # ℹ 11 more variables: arr_delay <dbl>, carrier <chr>, flight <int>,
## #   tailnum <chr>, origin <chr>, dest <chr>, air_time <dbl>, distance <dbl>,
## #   hour <dbl>, minute <dbl>, time_hour <dttm>

## # A tibble: 336,776 × 19
##     year month   day dep_time sched_dep_time dep_delay arr_time sched_arr_time
##    <int> <int> <int>    <int>          <int>     <dbl>    <int>          <int>
##  1  2013     1     9      641            900      1301     1242           1530
##  2  2013     6    15     1432           1935      1137     1607           2120
##  3  2013     1    10     1121           1635      1126     1239           1810
##  4  2013     9    20     1139           1845      1014     1457           2210
##  5  2013     7    22      845           1600      1005     1044           1815
##  6  2013     4    10     1100           1900       960     1342           2211
##  7  2013     3    17     2321            810       911      135           1020
##  8  2013     6    27      959           1900       899     1236           2226
##  9  2013     7    22     2257            759       898      121           1026
## 10  2013    12     5      756           1700       896     1058           2020
## # ℹ 336,766 more rows
## # ℹ 11 more variables: arr_delay <dbl>, carrier <chr>, flight <int>,
## #   tailnum <chr>, origin <chr>, dest <chr>, air_time <dbl>, distance <dbl>,
## #   hour <dbl>, minute <dbl>, time_hour <dttm>

## # A tibble: 2,313 × 3
##    month origin dest 
##    <int> <chr>  <chr>
##  1     1 EWR    IAH  
##  2     1 LGA    IAH  
##  3     1 JFK    MIA  
##  4     1 JFK    BQN  
##  5     1 LGA    ATL  
##  6     1 EWR    ORD  
##  7     1 EWR    FLL  
##  8     1 LGA    IAD  
##  9     1 JFK    MCO  
## 10     1 LGA    ORD  
## # ℹ 2,303 more rows

## # A tibble: 166 × 3
##    origin dest      n
##    <chr>  <chr> <int>
##  1 EWR    ALB       3
##  2 EWR    ATL       8
##  3 EWR    AUS       2
##  4 EWR    AVL       1
##  5 EWR    BDL       2
##  6 EWR    BNA       2
##  7 EWR    BOS       8
##  8 EWR    BQN       1
##  9 EWR    BTV       4
## 10 EWR    BUF       5
## # ℹ 156 more rows
…
# whoops
# flights %>% filter(arr_delay > 120 & 
#                    dest == "IAH" | dest == "HOU" &
#                    carrier  %in% c("United","American","Delta") &
#                    month %in% c(7,8,9) &
#                    dep_delay <= 0 &
#                    
#                    )
                    
# –Had an arrival delay of two or more hours
flights %>% filter(arr_delay > 120)

## # A tibble: 10,034 × 19
##     year month   day dep_time sched_dep_time dep_delay arr_time sched_arr_time
##    <int> <int> <int>    <int>          <int>     <dbl>    <int>          <int>
##  1  2013     1     1      811            630       101     1047            830
##  2  2013     1     1      848           1835       853     1001           1950
##  3  2013     1     1      957            733       144     1056            853
##  4  2013     1     1     1114            900       134     1447           1222
##  5  2013     1     1     1505           1310       115     1638           1431
##  6  2013     1     1     1525           1340       105     1831           1626
##  7  2013     1     1     1549           1445        64     1912           1656
##  8  2013     1     1     1558           1359       119     1718           1515
##  9  2013     1     1     1732           1630        62     2028           1825
## 10  2013     1     1     1803           1620       103     2008           1750
## # ℹ 10,024 more rows
## # ℹ 11 more variables: arr_delay <dbl>, carrier <chr>, flight <int>,
## #   tailnum <chr>, origin <chr>, dest <chr>, air_time <dbl>, distance <dbl>,
## #   hour <dbl>, minute <dbl>, time_hour <dttm>

# – Flew to Houston (IAH or HOU)
flights %>% filter(dest == "IAH" | dest == "HOU")

## # A tibble: 9,313 × 19
##     year month   day dep_time sched_dep_time dep_delay arr_time sched_arr_time
##    <int> <int> <int>    <int>          <int>     <dbl>    <int>          <int>
##  1  2013     1     1      517            515         2      830            819
##  2  2013     1     1      533            529         4      850            830
##  3  2013     1     1      623            627        -4      933            932
##  4  2013     1     1      728            732        -4     1041           1038
##  5  2013     1     1      739            739         0     1104           1038
##  6  2013     1     1      908            908         0     1228           1219
##  7  2013     1     1     1028           1026         2     1350           1339
##  8  2013     1     1     1044           1045        -1     1352           1351
##  9  2013     1     1     1114            900       134     1447           1222
## 10  2013     1     1     1205           1200         5     1503           1505
## # ℹ 9,303 more rows
## # ℹ 11 more variables: arr_delay <dbl>, carrier <chr>, flight <int>,
## #   tailnum <chr>, origin <chr>, dest <chr>, air_time <dbl>, distance <dbl>,
## #   hour <dbl>, minute <dbl>, time_hour <dttm>
…
flights %>% filter(carrier %in% c("UA", "AA", "DL"))

## # A tibble: 139,504 × 19
##     year month   day dep_time sched_dep_time dep_delay arr_time sched_arr_time
##    <int> <int> <int>    <int>          <int>     <dbl>    <int>          <int>
##  1  2013     1     1      517            515         2      830            819
##  2  2013     1     1      533            529         4      850            830
##  3  2013     1     1      542            540         2      923            850
##  4  2013     1     1      554            600        -6      812            837
##  5  2013     1     1      554            558        -4      740            728
##  6  2013     1     1      558            600        -2      753            745
##  7  2013     1     1      558            600        -2      924            917
##  8  2013     1     1      558            600        -2      923            937
##  9  2013     1     1      559            600        -1      941            910
## 10  2013     1     1      559            600        -1      854            902
## # ℹ 139,494 more rows
## # ℹ 11 more variables: arr_delay <dbl>, carrier <chr>, flight <int>,
## #   tailnum <chr>, origin <chr>, dest <chr>, air_time <dbl>, distance <dbl>,
## #   hour <dbl>, minute <dbl>, time_hour <dttm>

# –Departed in summer (July, August, and September)
flights %>% filter(month %in% 7:9)

## # A tibble: 86,326 × 19
##     year month   day dep_time sched_dep_time dep_delay arr_time sched_arr_time
##    <int> <int> <int>    <int>          <int>     <dbl>    <int>          <int>
##  1  2013     7     1        1           2029       212      236           2359
##  2  2013     7     1        2           2359         3      344            344
##  3  2013     7     1       29           2245       104      151              1
##  4  2013     7     1       43           2130       193      322             14
##  5  2013     7     1       44           2150       174      300            100
##  6  2013     7     1       46           2051       235      304           2358
##  7  2013     7     1       48           2001       287      308           2305
##  8  2013     7     1       58           2155       183      335             43
##  9  2013     7     1      100           2146       194      327             30
## 10  2013     7     1      100           2245       135      337            135
## # ℹ 86,316 more rows
## # ℹ 11 more variables: arr_delay <dbl>, carrier <chr>, flight <int>,
## #   tailnum <chr>, origin <chr>, dest <chr>, air_time <dbl>, distance <dbl>,
## #   hour <dbl>, minute <dbl>, time_hour <dttm>

# –Arrived more than two hours late, but didn’t leave late
flights %>% filter(arr_delay > 120 & dep_delay <= 0)

## # A tibble: 29 × 19
##     year month   day dep_time sched_dep_time dep_delay arr_time sched_arr_time
##    <int> <int> <int>    <int>          <int>     <dbl>    <int>          <int>
##  1  2013     1    27     1419           1420        -1     1754           1550
##  2  2013    10     7     1350           1350         0     1736           1526
##  3  2013    10     7     1357           1359        -2     1858           1654
##  4  2013    10    16      657            700        -3     1258           1056
##  5  2013    11     1      658            700        -2     1329           1015
##  6  2013     3    18     1844           1847        -3       39           2219
##  7  2013     4    17     1635           1640        -5     2049           1845
##  8  2013     4    18      558            600        -2     1149            850
##  9  2013     4    18      655            700        -5     1213            950
## 10  2013     5    22     1827           1830        -3     2217           2010
## # ℹ 19 more rows
## # ℹ 11 more variables: arr_delay <dbl>, carrier <chr>, flight <int>,
## #   tailnum <chr>, origin <chr>, dest <chr>, air_time <dbl>, distance <dbl>,
## #   hour <dbl>, minute <dbl>, time_hour <dttm>

# –Were delayed by at least an hour, but made up over 30 minutes in flight
flights %>% filter(dep_delay >= 60 & ((dep_delay-arr_delay) > 30))

## # A tibble: 1,844 × 19
##     year month   day dep_time sched_dep_time dep_delay arr_time sched_arr_time
##    <int> <int> <int>    <int>          <int>     <dbl>    <int>          <int>
##  1  2013     1     1     2205           1720       285       46           2040
##  2  2013     1     1     2326           2130       116      131             18
##  3  2013     1     3     1503           1221       162     1803           1555
##  4  2013     1     3     1839           1700        99     2056           1950
##  5  2013     1     3     1850           1745        65     2148           2120
##  6  2013     1     3     1941           1759       102     2246           2139
##  7  2013     1     3     1950           1845        65     2228           2227
##  8  2013     1     3     2015           1915        60     2135           2111
##  9  2013     1     3     2257           2000       177       45           2224
## 10  2013     1     4     1917           1700       137     2135           1950
## # ℹ 1,834 more rows
## # ℹ 11 more variables: arr_delay <dbl>, carrier <chr>, flight <int>,
## #   tailnum <chr>, origin <chr>, dest <chr>, air_time <dbl>, distance <dbl>,
## #   hour <dbl>, minute <dbl>, time_hour <dttm>

# –Sort flights to find the flights with longest departure delays. 
flights %>% arrange(desc(dep_delay))

## # A tibble: 336,776 × 19
##     year month   day dep_time sched_dep_time dep_delay arr_time sched_arr_time
##    <int> <int> <int>    <int>          <int>     <dbl>    <int>          <int>
##  1  2013     1     9      641            900      1301     1242           1530
##  2  2013     6    15     1432           1935      1137     1607           2120
##  3  2013     1    10     1121           1635      1126     1239           1810
##  4  2013     9    20     1139           1845      1014     1457           2210
##  5  2013     7    22      845           1600      1005     1044           1815
##  6  2013     4    10     1100           1900       960     1342           2211
##  7  2013     3    17     2321            810       911      135           1020
##  8  2013     6    27      959           1900       899     1236           2226
##  9  2013     7    22     2257            759       898      121           1026
## 10  2013    12     5      756           1700       896     1058           2020
## # ℹ 336,766 more rows
## # ℹ 11 more variables: arr_delay <dbl>, carrier <chr>, flight <int>,
## #   tailnum <chr>, origin <chr>, dest <chr>, air_time <dbl>, distance <dbl>,
## #   hour <dbl>, minute <dbl>, time_hour <dttm>

# Find the flights that left earliest in the morning.
flights %>% arrange(dep_time)

## # A tibble: 336,776 × 19
##     year month   day dep_time sched_dep_time dep_delay arr_time sched_arr_time
##    <int> <int> <int>    <int>          <int>     <dbl>    <int>          <int>
##  1  2013     1    13        1           2249        72      108           2357
##  2  2013     1    31        1           2100       181      124           2225
##  3  2013    11    13        1           2359         2      442            440
##  4  2013    12    16        1           2359         2      447            437
##  5  2013    12    20        1           2359         2      430            440
##  6  2013    12    26        1           2359         2      437            440
##  7  2013    12    30        1           2359         2      441            437
##  8  2013     2    11        1           2100       181      111           2225
##  9  2013     2    24        1           2245        76      121           2354
## 10  2013     3     8        1           2355         6      431            440
## # ℹ 336,766 more rows
## # ℹ 11 more variables: arr_delay <dbl>, carrier <chr>, flight <int>,
## #   tailnum <chr>, origin <chr>, dest <chr>, air_time <dbl>, distance <dbl>,
## #   hour <dbl>, minute <dbl>, time_hour <dttm>
…
names(flights
      )

##  [1] "year"           "month"          "day"            "dep_time"      
##  [5] "sched_dep_time" "dep_delay"      "arr_time"       "sched_arr_time"
##  [9] "arr_delay"      "carrier"        "flight"         "tailnum"       
## [13] "origin"         "dest"           "air_time"       "distance"      
## [17] "hour"           "minute"         "time_hour"

flights %>% arrange(desc(distance/air_time)) %>%
  select(distance, air_time) %>% 
  #Fluff
  mutate(speed_mph = distance / air_time * 60)

## # A tibble: 336,776 × 3
##    distance air_time speed_mph
##       <dbl>    <dbl>     <dbl>
##  1      762       65      703.
##  2     1008       93      650.
##  3      594       55      648 
##  4      748       70      641.
##  5     1035      105      591.
##  6     1598      170      564 
##  7     1598      172      557.
##  8     1623      175      556.
##  9     1598      173      554.
## 10     1598      173      554.
## # ℹ 336,766 more rows

3.Was there a flight on every day of 2013?

# removing cancelled flights, and checking distinct days and month combinations still appearing.

flights %>% filter(!is.na(dep_time)) %>% distinct(month, day)

## # A tibble: 365 × 2
##    month   day
##    <int> <int>
##  1     1     1
##  2     1     2
##  3     1     3
##  4     1     4
##  5     1     5
##  6     1     6
##  7     1     7
##  8     1     8
##  9     1     9
## 10     1    10
## # ℹ 355 more rows
…
#If you filter first you reduced the data size of the data first, and then arrange it.

#If you arrange first and then filter, you're working on the full data set for both operations

Exercises pt. 5

1.Compare dep_time, sched_dep_time, and dep_delay. How would you
expect those three numbers to be related?

flights %>% select(dep_time, sched_dep_time, dep_delay)

## # A tibble: 336,776 × 3
##    dep_time sched_dep_time dep_delay
##       <int>          <int>     <dbl>
##  1      517            515         2
##  2      533            529         4
##  3      542            540         2
##  4      544            545        -1
##  5      554            600        -6
##  6      554            558        -4
##  7      555            600        -5
##  8      557            600        -3
##  9      557            600        -3
## 10      558            600        -2
## # ℹ 336,766 more rows

# actual departure time - schedule = delay
# conversion is complicated

flights %>% separate(dep_time, into = c("dep_time_hour", "dep_time_min"), remove = FALSE, sep = -2)

## # A tibble: 336,776 × 21
##     year month   day dep_time dep_time_hour dep_time_min sched_dep_time
##    <int> <int> <int>    <int> <chr>         <chr>                 <int>
##  1  2013     1     1      517 5             17                      515
##  2  2013     1     1      533 5             33                      529
##  3  2013     1     1      542 5             42                      540
##  4  2013     1     1      544 5             44                      545
##  5  2013     1     1      554 5             54                      600
##  6  2013     1     1      554 5             54                      558
##  7  2013     1     1      555 5             55                      600
##  8  2013     1     1      557 5             57                      600
##  9  2013     1     1      557 5             57                      600
## 10  2013     1     1      558 5             58                      600
## # ℹ 336,766 more rows
## # ℹ 14 more variables: dep_delay <dbl>, arr_time <int>, sched_arr_time <int>,
## #   arr_delay <dbl>, carrier <chr>, flight <int>, tailnum <chr>, origin <chr>,
## #   dest <chr>, air_time <dbl>, distance <dbl>, hour <dbl>, minute <dbl>,
## #   time_hour <dttm>

2.Brainstorm as many ways as possible to select dep_time, dep_delay,
arr_time, and arr_delay from flights.

flights %>% select(dep_time, dep_delay, arr_time, arr_delay)

## # A tibble: 336,776 × 4
##    dep_time dep_delay arr_time arr_delay
##       <int>     <dbl>    <int>     <dbl>
##  1      517         2      830        11
##  2      533         4      850        20
##  3      542         2      923        33
##  4      544        -1     1004       -18
##  5      554        -6      812       -25
##  6      554        -4      740        12
##  7      555        -5      913        19
##  8      557        -3      709       -14
##  9      557        -3      838        -8
## 10      558        -2      753         8
## # ℹ 336,766 more rows

flights %>% select(matches("^dep"), matches("^arr"))

## # A tibble: 336,776 × 4
##    dep_time dep_delay arr_time arr_delay
##       <int>     <dbl>    <int>     <dbl>
##  1      517         2      830        11
##  2      533         4      850        20
##  3      542         2      923        33
##  4      544        -1     1004       -18
##  5      554        -6      812       -25
##  6      554        -4      740        12
##  7      555        -5      913        19
##  8      557        -3      709       -14
##  9      557        -3      838        -8
## 10      558        -2      753         8
## # ℹ 336,766 more rows
…
